…
# splits
hfi_2016_split
```

    ## <Training/Testing/Total>
    ## <129/33/162>

``` r
hfi_2016_train
```

    ## # A tibble: 129 × 123
    ##     year ISO_code countries      region           pf_rol_procedural pf_rol_civil
    ##    <dbl> <chr>    <chr>          <chr>                        <dbl>        <dbl>
    ##  1  2016 IDN      Indonesia      South Asia                    4.18         4.51
    ##  2  2016 SYC      Seychelles     Sub-Saharan Afr…             NA           NA   
    ##  3  2016 DOM      Dominican Rep. Latin America &…              5.24         4.54
    ##  4  2016 BEL      Belgium        Western Europe                8.67         7.34
    ##  5  2016 FRA      France         Western Europe                6.82         7.02
    ##  6  2016 LSO      Lesotho        Sub-Saharan Afr…             NA           NA   
    ##  7  2016 BRA      Brazil         Latin America &…              4.97         5.29
    ##  8  2016 NPL      Nepal          South Asia                    3.93         4.66
    ##  9  2016 JAM      Jamaica        Latin America &…              5.79         5.44
    ## 10  2016 AUT      Austria        Western Europe                8.97         7.87
    ## # ℹ 119 more rows
    ## # ℹ 117 more variables: pf_rol_criminal <dbl>, pf_rol <dbl>,
    ## #   pf_ss_homicide <dbl>, pf_ss_disappearances_disap <dbl>,
    ## #   pf_ss_disappearances_violent <dbl>, pf_ss_disappearances_organized <dbl>,
    ## #   pf_ss_disappearances_fatalities <dbl>, pf_ss_disappearances_injuries <dbl>,
    ## #   pf_ss_disappearances <dbl>, pf_ss_women_fgm <dbl>,
    ## #   pf_ss_women_missing <dbl>, pf_ss_women_inheritance_widows <dbl>, …
…
10. Interpret each of the estimated parameters from (10) in the context
    of this research question. That is, what do these values represent?

Now we will assess using the testing data set.

- In the code chunk below titled `train-fit-lm`, replace “verbatim” with
  “r” just before the code chunk title and update `data_test` to
  whatever R object you assigned your testing data to above.

``` r
test_aug <- augment(slr_train, new_data = hfi_2016_test)
test_aug
```

    ## # A tibble: 33 × 125
    ##    .pred  .resid  year ISO_code countries  region pf_rol_procedural pf_rol_civil
    ##    <dbl>   <dbl> <dbl> <chr>    <chr>      <chr>              <dbl>        <dbl>
    ##  1  7.30  0.801   2016 ARG      Argentina  Latin…              7.10         5.79
    ##  2  6.59  0.324   2016 ARM      Armenia    Cauca…             NA           NA   
    ##  3  4.32  1.36    2016 AZE      Azerbaijan Cauca…             NA           NA   
    ##  4  8.29 -0.838   2016 BHS      Bahamas    Latin…              6.93         6.01
    ##  5  6.02 -0.718   2016 BGD      Bangladesh South…              2.33         3.71
    ##  6  8.43 -0.728   2016 BRD      Barbados   Latin…              7.67         6.52
    ##  7  5.88 -0.413   2016 CAF      Central A… Sub-S…             NA           NA   
    ##  8  5.31  1.47    2016 COG      Congo, Re… Sub-S…             NA           NA   
    ##  9  7.16 -0.0940  2016 CIV      Cote d'Iv… Sub-S…              2.99         5.19
    ## 10  9.29 -0.273   2016 EST      Estonia    Easte…              8.77         7.85
    ## # ℹ 23 more rows
    ## # ℹ 117 more variables: pf_rol_criminal <dbl>, pf_rol <dbl>,
    ## #   pf_ss_homicide <dbl>, pf_ss_disappearances_disap <dbl>,
    ## #   pf_ss_disappearances_violent <dbl>, pf_ss_disappearances_organized <dbl>,
    ## #   pf_ss_disappearances_fatalities <dbl>, pf_ss_disappearances_injuries <dbl>,
    ## #   pf_ss_disappearances <dbl>, pf_ss_women_fgm <dbl>,
    ## #   pf_ss_women_missing <dbl>, pf_ss_women_inheritance_widows <dbl>, …
…
In order to do these checks we need access to the fitted (predicted)
values and the residuals. We can use `broom::augment` to calculate
these.

- In the code chunk below titled `augment`, replace “verbatim” with “r”
  just before the code chunk title and update `data_test` to whatever R
  object you assigned your testing data to above.

``` r
train_aug <- augment(slr_train, new_data =hfi_2016_train)

train_aug
```

    ## # A tibble: 129 × 125
    ##    .pred  .resid  year ISO_code countries  region pf_rol_procedural pf_rol_civil
    ##    <dbl>   <dbl> <dbl> <chr>    <chr>      <chr>              <dbl>        <dbl>
    ##  1  7.30 -0.917   2016 IDN      Indonesia  South…              4.18         4.51
    ##  2  7.58 -0.210   2016 SYC      Seychelles Sub-S…             NA           NA   
    ##  3  6.87  0.0700  2016 DOM      Dominican… Latin…              5.24         4.54
    ##  4  9.43 -0.441   2016 BEL      Belgium    Weste…              8.67         7.34
    ##  5  8.01  0.758   2016 FRA      France     Weste…              6.82         7.02
    ##  6  6.73 -0.0421  2016 LSO      Lesotho    Sub-S…             NA           NA   
    ##  7  6.73 -0.0646  2016 BRA      Brazil     Latin…              4.97         5.29
    ##  8  6.87  0.0391  2016 NPL      Nepal      South…              3.93         4.66
    ##  9  8.58 -1.31    2016 JAM      Jamaica    Latin…              5.79         5.44
    ## 10  8.72  0.529   2016 AUT      Austria    Weste…              8.97         7.87
    ## # ℹ 119 more rows
    ## # ℹ 117 more variables: pf_rol_criminal <dbl>, pf_rol <dbl>,
    ## #   pf_ss_homicide <dbl>, pf_ss_disappearances_disap <dbl>,
    ## #   pf_ss_disappearances_violent <dbl>, pf_ss_disappearances_organized <dbl>,
    ## #   pf_ss_disappearances_fatalities <dbl>, pf_ss_disappearances_injuries <dbl>,
    ## #   pf_ss_disappearances <dbl>, pf_ss_women_fgm <dbl>,
    ## #   pf_ss_women_missing <dbl>, pf_ss_women_inheritance_widows <dbl>, …
…
